{
  "images" : [
    {
      "idiom" : "universal",
      "filename" : "searchIcon50x50.png",
      "scale" : "1x"
    },
    {
      "idiom" : "universal",
      "filename" : "searchIcon100x100.png",
      "scale" : "2x"
    },
    {
      "idiom" : "universal",
      "filename" : "searchIcon150x150.png",
      "scale" : "3x"
    }
  ],
  "info" : {
    "version" : 1,
    "author" : "xcode"
  }
}